00000000
01010100
00000001
11100100
00000010
00100010
00000011
00010101
00000100
10010010
00000101
11101101
00000110
00101101
00000111
00101010
00001000
00000000
00001001
11000000
00001010
00000000
00001011
01000000
00010011
00101001
00010100
00111110
00010101
11111110
00010110
11011111
00010111
00011111
00011000
00111111
00011001
11000000
00011111
00000000
00100000
00000000
00100001
00000011
00100010
00000000
00100011
00000000
00100100
00000011
00101000
11000001
00101001
10000110
00101010
10011111
00101011
00000000
00101100
00011111
00101101
00111111
00101110
00000000
00101111
01011001
00110000
01001000
00110111
00000000
10000011
00011111
10000100
00000010
10001001
00000001
10001010
00001111
10001011
11111111
10001110
00000000
10001111
00000000
10001000
01000000
