memory_initialization_radix=16;
memory_initialization_vector=0 54 1 E4 2 22 3 15 4 92 5 ED 6 2D 7 2A 8 0 9 C0 A 0 B 40 13 29 14 3E 15 FE 16 DF 17 1F 18 3F 19 C0 1F 0 20 0 21 3 22 0 23 0 24 3 28 C1 29 86 2A 9F 2B 0 2C 1F 2D 3F 2E 0 2F 59 30 48 37 0 83 1F 84 2 89 1 8A 0F 8B FF 8E 0 8F 0 88 40;

asdfadsf
