xpm_memory.sv,systemverilog,xil_defaultlib,../../../../../../../../../../Software/Vivado/Vivado/2018.2/data/ip/xpm/xpm_memory/hdl/xpm_memory.sv,
xpm_VCOMP.vhd,vhdl,xpm,../../../../../../../../../../Software/Vivado/Vivado/2018.2/data/ip/xpm/xpm_VCOMP.vhd,
blk_mem_gen_v8_4.v,verilog,blk_mem_gen_v8_4_1,../../../ipstatic/simulation/blk_mem_gen_v8_4.v,
si5324_conf.v,verilog,xil_defaultlib,../../../ip/si5324_conf/sim/si5324_conf.v,
glbl.v,Verilog,xil_defaultlib,glbl.v
