Copyright 1986-2018 Xilinx, Inc. All Rights Reserved.
-----------------------------------------------------------------------------------------------------------------------------------------------------------
| Tool Version : Vivado v.2018.2 (lin64) Build 2258646 Thu Jun 14 20:02:38 MDT 2018
| Date         : Thu Jul 12 10:04:23 2018
| Host         : thinkpadT470 running 64-bit Ubuntu 16.04.4 LTS
| Command      : report_methodology -file orm_top_methodology_drc_routed.rpt -pb orm_top_methodology_drc_routed.pb -rpx orm_top_methodology_drc_routed.rpx
| Design       : orm_top
| Device       : xc7k70tfbv676-1
| Speed File   : -1
| Design State : Routed
-----------------------------------------------------------------------------------------------------------------------------------------------------------

Report Methodology

Table of Contents
-----------------
1. REPORT SUMMARY
2. REPORT DETAILS

1. REPORT SUMMARY
-----------------
            Netlist: netlist
          Floorplan: design_1
      Design limits: <entire design considered>
             Max violations: <unlimited>
             Violations found: 185
+-----------+----------+----------------------------------------------------+------------+
| Rule      | Severity | Description                                        | Violations |
+-----------+----------+----------------------------------------------------+------------+
| TIMING-6  | Warning  | No common primary clock between related clocks     | 2          |
| TIMING-7  | Warning  | No common node between related clocks              | 2          |
| TIMING-16 | Warning  | Large setup violation                              | 66         |
| TIMING-17 | Warning  | Non-clocked sequential cell                        | 105        |
| TIMING-18 | Warning  | Missing input or output delay                      | 3          |
| TIMING-25 | Warning  | Invalid clock waveform on gigabit transceiver (GT) | 1          |
| XDCB-5    | Warning  | Runtime inefficient way to find pin objects        | 6          |
+-----------+----------+----------------------------------------------------+------------+

2. REPORT DETAILS
-----------------
TIMING-6#1 Warning
No common primary clock between related clocks  
The clocks clkout0 and spi_sck are related (timed together) but they have no common primary clock. The design could fail in hardware. To find a timing path between these clocks, run the following command: report_timing -from [get_clocks clkout0] -to [get_clocks spi_sck]
Related violations: <none>

TIMING-6#2 Warning
No common primary clock between related clocks  
The clocks spi_sck and clkout0 are related (timed together) but they have no common primary clock. The design could fail in hardware. To find a timing path between these clocks, run the following command: report_timing -from [get_clocks spi_sck] -to [get_clocks clkout0]
Related violations: <none>

TIMING-7#1 Warning
No common node between related clocks  
The clocks clkout0 and spi_sck are related (timed together) but they have no common node. The design could fail in hardware. To find a timing path between these clocks, run the following command: report_timing -from [get_clocks clkout0] -to [get_clocks spi_sck]
Related violations: <none>

TIMING-7#2 Warning
No common node between related clocks  
The clocks spi_sck and clkout0 are related (timed together) but they have no common node. The design could fail in hardware. To find a timing path between these clocks, run the following command: report_timing -from [get_clocks spi_sck] -to [get_clocks clkout0]
Related violations: <none>

TIMING-16#1 Warning
Large setup violation  
There is a large setup violation of -1.027 ns between dummy_reg1_reg[4]/C (clocked by clkout0) and spiInterface_i/sro_latch_reg[4]/D (clocked by spi_sck). Large setup violations at the end of those stages might be difficult to fix during the post-placement implementation flow and could be the result of non-optimal XDC constraints or non-optimal design architecture
Related violations: <none>

TIMING-16#2 Warning
Large setup violation  
There is a large setup violation of -1.203 ns between dummy_reg0_reg[5]/C (clocked by clkout0) and spiInterface_i/sro_latch_reg[5]/D (clocked by spi_sck). Large setup violations at the end of those stages might be difficult to fix during the post-placement implementation flow and could be the result of non-optimal XDC constraints or non-optimal design architecture
Related violations: <none>

TIMING-16#3 Warning
Large setup violation  
There is a large setup violation of -1.330 ns between spiInterface_i/pi2peripheral_reg[2]/C (clocked by spi_sck) and dummy_reg0_reg[2]/D (clocked by clkout0). Large setup violations at the end of those stages might be difficult to fix during the post-placement implementation flow and could be the result of non-optimal XDC constraints or non-optimal design architecture
Related violations: <none>

TIMING-16#4 Warning
Large setup violation  
There is a large setup violation of -1.378 ns between spiInterface_i/pi2peripheral_reg[7]/C (clocked by spi_sck) and dummy_reg0_reg[7]/D (clocked by clkout0). Large setup violations at the end of those stages might be difficult to fix during the post-placement implementation flow and could be the result of non-optimal XDC constraints or non-optimal design architecture
Related violations: <none>

TIMING-16#5 Warning
Large setup violation  
There is a large setup violation of -1.383 ns between spiInterface_i/pi2peripheral_reg[8]/C (clocked by spi_sck) and dummy_reg1_reg[8]/D (clocked by clkout0). Large setup violations at the end of those stages might be difficult to fix during the post-placement implementation flow and could be the result of non-optimal XDC constraints or non-optimal design architecture
Related violations: <none>

TIMING-16#6 Warning
Large setup violation  
There is a large setup violation of -1.385 ns between spiInterface_i/pi2peripheral_reg[15]/C (clocked by spi_sck) and dummy_reg0_reg[15]/D (clocked by clkout0). Large setup violations at the end of those stages might be difficult to fix during the post-placement implementation flow and could be the result of non-optimal XDC constraints or non-optimal design architecture
Related violations: <none>

TIMING-16#7 Warning
Large setup violation  
There is a large setup violation of -1.392 ns between spiInterface_i/pi2peripheral_reg[2]/C (clocked by spi_sck) and dummy_reg1_reg[2]/D (clocked by clkout0). Large setup violations at the end of those stages might be difficult to fix during the post-placement implementation flow and could be the result of non-optimal XDC constraints or non-optimal design architecture
Related violations: <none>

TIMING-16#8 Warning
Large setup violation  
There is a large setup violation of -1.417 ns between spiInterface_i/pi2peripheral_reg[6]/C (clocked by spi_sck) and dummy_reg0_reg[6]/D (clocked by clkout0). Large setup violations at the end of those stages might be difficult to fix during the post-placement implementation flow and could be the result of non-optimal XDC constraints or non-optimal design architecture
Related violations: <none>

TIMING-16#9 Warning
Large setup violation  
There is a large setup violation of -1.434 ns between spiInterface_i/pi2peripheral_reg[9]/C (clocked by spi_sck) and dummy_reg0_reg[9]/D (clocked by clkout0). Large setup violations at the end of those stages might be difficult to fix during the post-placement implementation flow and could be the result of non-optimal XDC constraints or non-optimal design architecture
Related violations: <none>

TIMING-16#10 Warning
Large setup violation  
There is a large setup violation of -1.439 ns between spiInterface_i/pi2peripheral_reg[0]/C (clocked by spi_sck) and dummy_reg0_reg[0]/D (clocked by clkout0). Large setup violations at the end of those stages might be difficult to fix during the post-placement implementation flow and could be the result of non-optimal XDC constraints or non-optimal design architecture
Related violations: <none>

TIMING-16#11 Warning
Large setup violation  
There is a large setup violation of -1.446 ns between spiInterface_i/pi2peripheral_reg[9]/C (clocked by spi_sck) and dummy_reg1_reg[9]/D (clocked by clkout0). Large setup violations at the end of those stages might be difficult to fix during the post-placement implementation flow and could be the result of non-optimal XDC constraints or non-optimal design architecture
Related violations: <none>

TIMING-16#12 Warning
Large setup violation  
There is a large setup violation of -1.448 ns between spiInterface_i/pi2peripheral_reg[15]/C (clocked by spi_sck) and dummy_reg1_reg[15]/D (clocked by clkout0). Large setup violations at the end of those stages might be difficult to fix during the post-placement implementation flow and could be the result of non-optimal XDC constraints or non-optimal design architecture
Related violations: <none>

TIMING-16#13 Warning
Large setup violation  
There is a large setup violation of -1.450 ns between spiInterface_i/pi2peripheral_reg[11]/C (clocked by spi_sck) and dummy_reg0_reg[11]/D (clocked by clkout0). Large setup violations at the end of those stages might be difficult to fix during the post-placement implementation flow and could be the result of non-optimal XDC constraints or non-optimal design architecture
Related violations: <none>

TIMING-16#14 Warning
Large setup violation  
There is a large setup violation of -1.452 ns between spiInterface_i/pi2peripheral_reg[11]/C (clocked by spi_sck) and dummy_reg1_reg[11]/D (clocked by clkout0). Large setup violations at the end of those stages might be difficult to fix during the post-placement implementation flow and could be the result of non-optimal XDC constraints or non-optimal design architecture
Related violations: <none>

TIMING-16#15 Warning
Large setup violation  
There is a large setup violation of -1.454 ns between spiInterface_i/pi2peripheral_reg[13]/C (clocked by spi_sck) and dummy_reg0_reg[13]/D (clocked by clkout0). Large setup violations at the end of those stages might be difficult to fix during the post-placement implementation flow and could be the result of non-optimal XDC constraints or non-optimal design architecture
Related violations: <none>

TIMING-16#16 Warning
Large setup violation  
There is a large setup violation of -1.455 ns between spiInterface_i/pi2peripheral_reg[14]/C (clocked by spi_sck) and dummy_reg0_reg[14]/D (clocked by clkout0). Large setup violations at the end of those stages might be difficult to fix during the post-placement implementation flow and could be the result of non-optimal XDC constraints or non-optimal design architecture
Related violations: <none>

TIMING-16#17 Warning
Large setup violation  
There is a large setup violation of -1.458 ns between spiInterface_i/pi2peripheral_reg[6]/C (clocked by spi_sck) and dummy_reg1_reg[6]/D (clocked by clkout0). Large setup violations at the end of those stages might be difficult to fix during the post-placement implementation flow and could be the result of non-optimal XDC constraints or non-optimal design architecture
Related violations: <none>

TIMING-16#18 Warning
Large setup violation  
There is a large setup violation of -1.462 ns between spiInterface_i/pi2peripheral_reg[4]/C (clocked by spi_sck) and dummy_reg1_reg[4]/D (clocked by clkout0). Large setup violations at the end of those stages might be difficult to fix during the post-placement implementation flow and could be the result of non-optimal XDC constraints or non-optimal design architecture
Related violations: <none>

TIMING-16#19 Warning
Large setup violation  
There is a large setup violation of -1.462 ns between spiInterface_i/pi2peripheral_reg[7]/C (clocked by spi_sck) and dummy_reg1_reg[7]/D (clocked by clkout0). Large setup violations at the end of those stages might be difficult to fix during the post-placement implementation flow and could be the result of non-optimal XDC constraints or non-optimal design architecture
Related violations: <none>

TIMING-16#20 Warning
Large setup violation  
There is a large setup violation of -1.470 ns between spiInterface_i/pi2peripheral_reg[0]/C (clocked by spi_sck) and dummy_reg1_reg[0]/D (clocked by clkout0). Large setup violations at the end of those stages might be difficult to fix during the post-placement implementation flow and could be the result of non-optimal XDC constraints or non-optimal design architecture
Related violations: <none>

TIMING-16#21 Warning
Large setup violation  
There is a large setup violation of -1.470 ns between spiInterface_i/pi2peripheral_reg[10]/C (clocked by spi_sck) and dummy_reg1_reg[10]/D (clocked by clkout0). Large setup violations at the end of those stages might be difficult to fix during the post-placement implementation flow and could be the result of non-optimal XDC constraints or non-optimal design architecture
Related violations: <none>

TIMING-16#22 Warning
Large setup violation  
There is a large setup violation of -1.476 ns between spiInterface_i/pi2peripheral_reg[10]/C (clocked by spi_sck) and dummy_reg0_reg[10]/D (clocked by clkout0). Large setup violations at the end of those stages might be difficult to fix during the post-placement implementation flow and could be the result of non-optimal XDC constraints or non-optimal design architecture
Related violations: <none>

TIMING-16#23 Warning
Large setup violation  
There is a large setup violation of -1.476 ns between spiInterface_i/pi2peripheral_reg[4]/C (clocked by spi_sck) and dummy_reg0_reg[4]/D (clocked by clkout0). Large setup violations at the end of those stages might be difficult to fix during the post-placement implementation flow and could be the result of non-optimal XDC constraints or non-optimal design architecture
Related violations: <none>

TIMING-16#24 Warning
Large setup violation  
There is a large setup violation of -1.487 ns between spiInterface_i/pi2peripheral_reg[8]/C (clocked by spi_sck) and dummy_reg0_reg[8]/D (clocked by clkout0). Large setup violations at the end of those stages might be difficult to fix during the post-placement implementation flow and could be the result of non-optimal XDC constraints or non-optimal design architecture
Related violations: <none>

TIMING-16#25 Warning
Large setup violation  
There is a large setup violation of -1.489 ns between spiInterface_i/pi2peripheral_reg[3]/C (clocked by spi_sck) and dummy_reg0_reg[3]/D (clocked by clkout0). Large setup violations at the end of those stages might be difficult to fix during the post-placement implementation flow and could be the result of non-optimal XDC constraints or non-optimal design architecture
Related violations: <none>

TIMING-16#26 Warning
Large setup violation  
There is a large setup violation of -1.501 ns between spiInterface_i/pi2peripheral_reg[5]/C (clocked by spi_sck) and dummy_reg0_reg[5]/D (clocked by clkout0). Large setup violations at the end of those stages might be difficult to fix during the post-placement implementation flow and could be the result of non-optimal XDC constraints or non-optimal design architecture
Related violations: <none>

TIMING-16#27 Warning
Large setup violation  
There is a large setup violation of -1.504 ns between spiInterface_i/pi2peripheral_reg[1]/C (clocked by spi_sck) and dummy_reg1_reg[1]/D (clocked by clkout0). Large setup violations at the end of those stages might be difficult to fix during the post-placement implementation flow and could be the result of non-optimal XDC constraints or non-optimal design architecture
Related violations: <none>

TIMING-16#28 Warning
Large setup violation  
There is a large setup violation of -1.505 ns between spiInterface_i/pi2peripheral_reg[14]/C (clocked by spi_sck) and dummy_reg1_reg[14]/D (clocked by clkout0). Large setup violations at the end of those stages might be difficult to fix during the post-placement implementation flow and could be the result of non-optimal XDC constraints or non-optimal design architecture
Related violations: <none>

TIMING-16#29 Warning
Large setup violation  
There is a large setup violation of -1.505 ns between spiInterface_i/pi2peripheral_reg[1]/C (clocked by spi_sck) and dummy_reg0_reg[1]/D (clocked by clkout0). Large setup violations at the end of those stages might be difficult to fix during the post-placement implementation flow and could be the result of non-optimal XDC constraints or non-optimal design architecture
Related violations: <none>

TIMING-16#30 Warning
Large setup violation  
There is a large setup violation of -1.510 ns between spiInterface_i/pi2peripheral_reg[12]/C (clocked by spi_sck) and dummy_reg1_reg[12]/D (clocked by clkout0). Large setup violations at the end of those stages might be difficult to fix during the post-placement implementation flow and could be the result of non-optimal XDC constraints or non-optimal design architecture
Related violations: <none>

TIMING-16#31 Warning
Large setup violation  
There is a large setup violation of -1.510 ns between spiInterface_i/pi2peripheral_reg[3]/C (clocked by spi_sck) and dummy_reg1_reg[3]/D (clocked by clkout0). Large setup violations at the end of those stages might be difficult to fix during the post-placement implementation flow and could be the result of non-optimal XDC constraints or non-optimal design architecture
Related violations: <none>

TIMING-16#32 Warning
Large setup violation  
There is a large setup violation of -1.511 ns between spiInterface_i/pi2peripheral_reg[5]/C (clocked by spi_sck) and dummy_reg1_reg[5]/D (clocked by clkout0). Large setup violations at the end of those stages might be difficult to fix during the post-placement implementation flow and could be the result of non-optimal XDC constraints or non-optimal design architecture
Related violations: <none>

TIMING-16#33 Warning
Large setup violation  
There is a large setup violation of -1.513 ns between spiInterface_i/pi2peripheral_reg[12]/C (clocked by spi_sck) and dummy_reg0_reg[12]/D (clocked by clkout0). Large setup violations at the end of those stages might be difficult to fix during the post-placement implementation flow and could be the result of non-optimal XDC constraints or non-optimal design architecture
Related violations: <none>

TIMING-16#34 Warning
Large setup violation  
There is a large setup violation of -1.515 ns between spiInterface_i/pi2peripheral_reg[13]/C (clocked by spi_sck) and dummy_reg1_reg[13]/D (clocked by clkout0). Large setup violations at the end of those stages might be difficult to fix during the post-placement implementation flow and could be the result of non-optimal XDC constraints or non-optimal design architecture
Related violations: <none>

TIMING-16#35 Warning
Large setup violation  
There is a large setup violation of -2.206 ns between spiInterface_i/peripheral_addr_reg[8]/C (clocked by spi_sck) and dummy_reg0_reg[14]/CE (clocked by clkout0). Large setup violations at the end of those stages might be difficult to fix during the post-placement implementation flow and could be the result of non-optimal XDC constraints or non-optimal design architecture
Related violations: <none>

TIMING-16#36 Warning
Large setup violation  
There is a large setup violation of -2.206 ns between spiInterface_i/peripheral_addr_reg[8]/C (clocked by spi_sck) and dummy_reg0_reg[15]/CE (clocked by clkout0). Large setup violations at the end of those stages might be difficult to fix during the post-placement implementation flow and could be the result of non-optimal XDC constraints or non-optimal design architecture
Related violations: <none>

TIMING-16#37 Warning
Large setup violation  
There is a large setup violation of -2.206 ns between spiInterface_i/peripheral_addr_reg[8]/C (clocked by spi_sck) and dummy_reg0_reg[2]/CE (clocked by clkout0). Large setup violations at the end of those stages might be difficult to fix during the post-placement implementation flow and could be the result of non-optimal XDC constraints or non-optimal design architecture
Related violations: <none>

TIMING-16#38 Warning
Large setup violation  
There is a large setup violation of -2.206 ns between spiInterface_i/peripheral_addr_reg[8]/C (clocked by spi_sck) and dummy_reg0_reg[3]/CE (clocked by clkout0). Large setup violations at the end of those stages might be difficult to fix during the post-placement implementation flow and could be the result of non-optimal XDC constraints or non-optimal design architecture
Related violations: <none>

TIMING-16#39 Warning
Large setup violation  
There is a large setup violation of -2.206 ns between spiInterface_i/peripheral_addr_reg[8]/C (clocked by spi_sck) and dummy_reg0_reg[5]/CE (clocked by clkout0). Large setup violations at the end of those stages might be difficult to fix during the post-placement implementation flow and could be the result of non-optimal XDC constraints or non-optimal design architecture
Related violations: <none>

TIMING-16#40 Warning
Large setup violation  
There is a large setup violation of -2.206 ns between spiInterface_i/peripheral_addr_reg[8]/C (clocked by spi_sck) and dummy_reg0_reg[6]/CE (clocked by clkout0). Large setup violations at the end of those stages might be difficult to fix during the post-placement implementation flow and could be the result of non-optimal XDC constraints or non-optimal design architecture
Related violations: <none>

TIMING-16#41 Warning
Large setup violation  
There is a large setup violation of -2.206 ns between spiInterface_i/peripheral_addr_reg[8]/C (clocked by spi_sck) and dummy_reg0_reg[8]/CE (clocked by clkout0). Large setup violations at the end of those stages might be difficult to fix during the post-placement implementation flow and could be the result of non-optimal XDC constraints or non-optimal design architecture
Related violations: <none>

TIMING-16#42 Warning
Large setup violation  
There is a large setup violation of -2.206 ns between spiInterface_i/peripheral_addr_reg[8]/C (clocked by spi_sck) and dummy_reg0_reg[9]/CE (clocked by clkout0). Large setup violations at the end of those stages might be difficult to fix during the post-placement implementation flow and could be the result of non-optimal XDC constraints or non-optimal design architecture
Related violations: <none>

TIMING-16#43 Warning
Large setup violation  
There is a large setup violation of -2.295 ns between spiInterface_i/peripheral_addr_reg[8]/C (clocked by spi_sck) and dummy_reg0_reg[0]/CE (clocked by clkout0). Large setup violations at the end of those stages might be difficult to fix during the post-placement implementation flow and could be the result of non-optimal XDC constraints or non-optimal design architecture
Related violations: <none>

TIMING-16#44 Warning
Large setup violation  
There is a large setup violation of -2.295 ns between spiInterface_i/peripheral_addr_reg[8]/C (clocked by spi_sck) and dummy_reg0_reg[10]/CE (clocked by clkout0). Large setup violations at the end of those stages might be difficult to fix during the post-placement implementation flow and could be the result of non-optimal XDC constraints or non-optimal design architecture
Related violations: <none>

TIMING-16#45 Warning
Large setup violation  
There is a large setup violation of -2.295 ns between spiInterface_i/peripheral_addr_reg[8]/C (clocked by spi_sck) and dummy_reg0_reg[11]/CE (clocked by clkout0). Large setup violations at the end of those stages might be difficult to fix during the post-placement implementation flow and could be the result of non-optimal XDC constraints or non-optimal design architecture
Related violations: <none>

TIMING-16#46 Warning
Large setup violation  
There is a large setup violation of -2.295 ns between spiInterface_i/peripheral_addr_reg[8]/C (clocked by spi_sck) and dummy_reg0_reg[12]/CE (clocked by clkout0). Large setup violations at the end of those stages might be difficult to fix during the post-placement implementation flow and could be the result of non-optimal XDC constraints or non-optimal design architecture
Related violations: <none>

TIMING-16#47 Warning
Large setup violation  
There is a large setup violation of -2.295 ns between spiInterface_i/peripheral_addr_reg[8]/C (clocked by spi_sck) and dummy_reg0_reg[13]/CE (clocked by clkout0). Large setup violations at the end of those stages might be difficult to fix during the post-placement implementation flow and could be the result of non-optimal XDC constraints or non-optimal design architecture
Related violations: <none>

TIMING-16#48 Warning
Large setup violation  
There is a large setup violation of -2.295 ns between spiInterface_i/peripheral_addr_reg[8]/C (clocked by spi_sck) and dummy_reg0_reg[1]/CE (clocked by clkout0). Large setup violations at the end of those stages might be difficult to fix during the post-placement implementation flow and could be the result of non-optimal XDC constraints or non-optimal design architecture
Related violations: <none>

TIMING-16#49 Warning
Large setup violation  
There is a large setup violation of -2.295 ns between spiInterface_i/peripheral_addr_reg[8]/C (clocked by spi_sck) and dummy_reg0_reg[4]/CE (clocked by clkout0). Large setup violations at the end of those stages might be difficult to fix during the post-placement implementation flow and could be the result of non-optimal XDC constraints or non-optimal design architecture
Related violations: <none>

TIMING-16#50 Warning
Large setup violation  
There is a large setup violation of -2.295 ns between spiInterface_i/peripheral_addr_reg[8]/C (clocked by spi_sck) and dummy_reg0_reg[7]/CE (clocked by clkout0). Large setup violations at the end of those stages might be difficult to fix during the post-placement implementation flow and could be the result of non-optimal XDC constraints or non-optimal design architecture
Related violations: <none>

TIMING-16#51 Warning
Large setup violation  
There is a large setup violation of -2.558 ns between spiInterface_i/peripheral_addr_reg[7]/C (clocked by spi_sck) and dummy_reg1_reg[6]/CE (clocked by clkout0). Large setup violations at the end of those stages might be difficult to fix during the post-placement implementation flow and could be the result of non-optimal XDC constraints or non-optimal design architecture
Related violations: <none>

TIMING-16#52 Warning
Large setup violation  
There is a large setup violation of -2.569 ns between spiInterface_i/peripheral_addr_reg[7]/C (clocked by spi_sck) and dummy_reg1_reg[0]/CE (clocked by clkout0). Large setup violations at the end of those stages might be difficult to fix during the post-placement implementation flow and could be the result of non-optimal XDC constraints or non-optimal design architecture
Related violations: <none>

TIMING-16#53 Warning
Large setup violation  
There is a large setup violation of -2.569 ns between spiInterface_i/peripheral_addr_reg[7]/C (clocked by spi_sck) and dummy_reg1_reg[10]/CE (clocked by clkout0). Large setup violations at the end of those stages might be difficult to fix during the post-placement implementation flow and could be the result of non-optimal XDC constraints or non-optimal design architecture
Related violations: <none>

TIMING-16#54 Warning
Large setup violation  
There is a large setup violation of -2.569 ns between spiInterface_i/peripheral_addr_reg[7]/C (clocked by spi_sck) and dummy_reg1_reg[11]/CE (clocked by clkout0). Large setup violations at the end of those stages might be difficult to fix during the post-placement implementation flow and could be the result of non-optimal XDC constraints or non-optimal design architecture
Related violations: <none>

TIMING-16#55 Warning
Large setup violation  
There is a large setup violation of -2.569 ns between spiInterface_i/peripheral_addr_reg[7]/C (clocked by spi_sck) and dummy_reg1_reg[12]/CE (clocked by clkout0). Large setup violations at the end of those stages might be difficult to fix during the post-placement implementation flow and could be the result of non-optimal XDC constraints or non-optimal design architecture
Related violations: <none>

TIMING-16#56 Warning
Large setup violation  
There is a large setup violation of -2.569 ns between spiInterface_i/peripheral_addr_reg[7]/C (clocked by spi_sck) and dummy_reg1_reg[13]/CE (clocked by clkout0). Large setup violations at the end of those stages might be difficult to fix during the post-placement implementation flow and could be the result of non-optimal XDC constraints or non-optimal design architecture
Related violations: <none>

TIMING-16#57 Warning
Large setup violation  
There is a large setup violation of -2.569 ns between spiInterface_i/peripheral_addr_reg[7]/C (clocked by spi_sck) and dummy_reg1_reg[14]/CE (clocked by clkout0). Large setup violations at the end of those stages might be difficult to fix during the post-placement implementation flow and could be the result of non-optimal XDC constraints or non-optimal design architecture
Related violations: <none>

TIMING-16#58 Warning
Large setup violation  
There is a large setup violation of -2.569 ns between spiInterface_i/peripheral_addr_reg[7]/C (clocked by spi_sck) and dummy_reg1_reg[15]/CE (clocked by clkout0). Large setup violations at the end of those stages might be difficult to fix during the post-placement implementation flow and could be the result of non-optimal XDC constraints or non-optimal design architecture
Related violations: <none>

TIMING-16#59 Warning
Large setup violation  
There is a large setup violation of -2.569 ns between spiInterface_i/peripheral_addr_reg[7]/C (clocked by spi_sck) and dummy_reg1_reg[1]/CE (clocked by clkout0). Large setup violations at the end of those stages might be difficult to fix during the post-placement implementation flow and could be the result of non-optimal XDC constraints or non-optimal design architecture
Related violations: <none>

TIMING-16#60 Warning
Large setup violation  
There is a large setup violation of -2.569 ns between spiInterface_i/peripheral_addr_reg[7]/C (clocked by spi_sck) and dummy_reg1_reg[2]/CE (clocked by clkout0). Large setup violations at the end of those stages might be difficult to fix during the post-placement implementation flow and could be the result of non-optimal XDC constraints or non-optimal design architecture
Related violations: <none>

TIMING-16#61 Warning
Large setup violation  
There is a large setup violation of -2.569 ns between spiInterface_i/peripheral_addr_reg[7]/C (clocked by spi_sck) and dummy_reg1_reg[3]/CE (clocked by clkout0). Large setup violations at the end of those stages might be difficult to fix during the post-placement implementation flow and could be the result of non-optimal XDC constraints or non-optimal design architecture
Related violations: <none>

TIMING-16#62 Warning
Large setup violation  
There is a large setup violation of -2.569 ns between spiInterface_i/peripheral_addr_reg[7]/C (clocked by spi_sck) and dummy_reg1_reg[4]/CE (clocked by clkout0). Large setup violations at the end of those stages might be difficult to fix during the post-placement implementation flow and could be the result of non-optimal XDC constraints or non-optimal design architecture
Related violations: <none>

TIMING-16#63 Warning
Large setup violation  
There is a large setup violation of -2.569 ns between spiInterface_i/peripheral_addr_reg[7]/C (clocked by spi_sck) and dummy_reg1_reg[5]/CE (clocked by clkout0). Large setup violations at the end of those stages might be difficult to fix during the post-placement implementation flow and could be the result of non-optimal XDC constraints or non-optimal design architecture
Related violations: <none>

TIMING-16#64 Warning
Large setup violation  
There is a large setup violation of -2.569 ns between spiInterface_i/peripheral_addr_reg[7]/C (clocked by spi_sck) and dummy_reg1_reg[7]/CE (clocked by clkout0). Large setup violations at the end of those stages might be difficult to fix during the post-placement implementation flow and could be the result of non-optimal XDC constraints or non-optimal design architecture
Related violations: <none>

TIMING-16#65 Warning
Large setup violation  
There is a large setup violation of -2.569 ns between spiInterface_i/peripheral_addr_reg[7]/C (clocked by spi_sck) and dummy_reg1_reg[8]/CE (clocked by clkout0). Large setup violations at the end of those stages might be difficult to fix during the post-placement implementation flow and could be the result of non-optimal XDC constraints or non-optimal design architecture
Related violations: <none>

TIMING-16#66 Warning
Large setup violation  
There is a large setup violation of -2.569 ns between spiInterface_i/peripheral_addr_reg[7]/C (clocked by spi_sck) and dummy_reg1_reg[9]/CE (clocked by clkout0). Large setup violations at the end of those stages might be difficult to fix during the post-placement implementation flow and could be the result of non-optimal XDC constraints or non-optimal design architecture
Related violations: <none>

TIMING-17#1 Warning
Non-clocked sequential cell  
The clock pin GTX/inst/gtwizard_0_init_i/gtwizard_0_i/cpll_railing0_i/cpllpd_wait_reg[31]_srl32/CLK is not reached by a timing clock
Related violations: <none>

TIMING-17#2 Warning
Non-clocked sequential cell  
The clock pin GTX/inst/gtwizard_0_init_i/gtwizard_0_i/cpll_railing0_i/cpllpd_wait_reg[63]_srl32/CLK is not reached by a timing clock
Related violations: <none>

TIMING-17#3 Warning
Non-clocked sequential cell  
The clock pin GTX/inst/gtwizard_0_init_i/gtwizard_0_i/cpll_railing0_i/cpllpd_wait_reg[94]_srl31/CLK is not reached by a timing clock
Related violations: <none>

TIMING-17#4 Warning
Non-clocked sequential cell  
The clock pin GTX/inst/gtwizard_0_init_i/gtwizard_0_i/cpll_railing0_i/cpllpd_wait_reg[95]/C is not reached by a timing clock
Related violations: <none>

TIMING-17#5 Warning
Non-clocked sequential cell  
The clock pin GTX/inst/gtwizard_0_init_i/gtwizard_0_i/cpll_railing0_i/cpllreset_wait_reg[126]_srl31/CLK is not reached by a timing clock
Related violations: <none>

TIMING-17#6 Warning
Non-clocked sequential cell  
The clock pin GTX/inst/gtwizard_0_init_i/gtwizard_0_i/cpll_railing0_i/cpllreset_wait_reg[127]/C is not reached by a timing clock
Related violations: <none>

TIMING-17#7 Warning
Non-clocked sequential cell  
The clock pin GTX/inst/gtwizard_0_init_i/gtwizard_0_i/cpll_railing0_i/cpllreset_wait_reg[31]_srl32/CLK is not reached by a timing clock
Related violations: <none>

TIMING-17#8 Warning
Non-clocked sequential cell  
The clock pin GTX/inst/gtwizard_0_init_i/gtwizard_0_i/cpll_railing0_i/cpllreset_wait_reg[63]_srl32/CLK is not reached by a timing clock
Related violations: <none>

TIMING-17#9 Warning
Non-clocked sequential cell  
The clock pin GTX/inst/gtwizard_0_init_i/gtwizard_0_i/cpll_railing0_i/cpllreset_wait_reg[95]_srl32/CLK is not reached by a timing clock
Related violations: <none>

TIMING-17#10 Warning
Non-clocked sequential cell  
The clock pin si5324_cfg/DONE_reg/C is not reached by a timing clock
Related violations: <none>

TIMING-17#11 Warning
Non-clocked sequential cell  
The clock pin si5324_cfg/counter_en_reg/C is not reached by a timing clock
Related violations: <none>

TIMING-17#12 Warning
Non-clocked sequential cell  
The clock pin si5324_cfg/counter_reg[0]/C is not reached by a timing clock
Related violations: <none>

TIMING-17#13 Warning
Non-clocked sequential cell  
The clock pin si5324_cfg/counter_reg[10]/C is not reached by a timing clock
Related violations: <none>

TIMING-17#14 Warning
Non-clocked sequential cell  
The clock pin si5324_cfg/counter_reg[11]/C is not reached by a timing clock
Related violations: <none>

TIMING-17#15 Warning
Non-clocked sequential cell  
The clock pin si5324_cfg/counter_reg[12]/C is not reached by a timing clock
Related violations: <none>

TIMING-17#16 Warning
Non-clocked sequential cell  
The clock pin si5324_cfg/counter_reg[13]/C is not reached by a timing clock
Related violations: <none>

TIMING-17#17 Warning
Non-clocked sequential cell  
The clock pin si5324_cfg/counter_reg[14]/C is not reached by a timing clock
Related violations: <none>

TIMING-17#18 Warning
Non-clocked sequential cell  
The clock pin si5324_cfg/counter_reg[15]/C is not reached by a timing clock
Related violations: <none>

TIMING-17#19 Warning
Non-clocked sequential cell  
The clock pin si5324_cfg/counter_reg[16]/C is not reached by a timing clock
Related violations: <none>

TIMING-17#20 Warning
Non-clocked sequential cell  
The clock pin si5324_cfg/counter_reg[17]/C is not reached by a timing clock
Related violations: <none>

TIMING-17#21 Warning
Non-clocked sequential cell  
The clock pin si5324_cfg/counter_reg[18]/C is not reached by a timing clock
Related violations: <none>

TIMING-17#22 Warning
Non-clocked sequential cell  
The clock pin si5324_cfg/counter_reg[19]/C is not reached by a timing clock
Related violations: <none>

TIMING-17#23 Warning
Non-clocked sequential cell  
The clock pin si5324_cfg/counter_reg[1]/C is not reached by a timing clock
Related violations: <none>

TIMING-17#24 Warning
Non-clocked sequential cell  
The clock pin si5324_cfg/counter_reg[20]/C is not reached by a timing clock
Related violations: <none>

TIMING-17#25 Warning
Non-clocked sequential cell  
The clock pin si5324_cfg/counter_reg[21]/C is not reached by a timing clock
Related violations: <none>

TIMING-17#26 Warning
Non-clocked sequential cell  
The clock pin si5324_cfg/counter_reg[22]/C is not reached by a timing clock
Related violations: <none>

TIMING-17#27 Warning
Non-clocked sequential cell  
The clock pin si5324_cfg/counter_reg[23]/C is not reached by a timing clock
Related violations: <none>

TIMING-17#28 Warning
Non-clocked sequential cell  
The clock pin si5324_cfg/counter_reg[24]/C is not reached by a timing clock
Related violations: <none>

TIMING-17#29 Warning
Non-clocked sequential cell  
The clock pin si5324_cfg/counter_reg[25]/C is not reached by a timing clock
Related violations: <none>

TIMING-17#30 Warning
Non-clocked sequential cell  
The clock pin si5324_cfg/counter_reg[26]/C is not reached by a timing clock
Related violations: <none>

TIMING-17#31 Warning
Non-clocked sequential cell  
The clock pin si5324_cfg/counter_reg[27]/C is not reached by a timing clock
Related violations: <none>

TIMING-17#32 Warning
Non-clocked sequential cell  
The clock pin si5324_cfg/counter_reg[28]/C is not reached by a timing clock
Related violations: <none>

TIMING-17#33 Warning
Non-clocked sequential cell  
The clock pin si5324_cfg/counter_reg[29]/C is not reached by a timing clock
Related violations: <none>

TIMING-17#34 Warning
Non-clocked sequential cell  
The clock pin si5324_cfg/counter_reg[2]/C is not reached by a timing clock
Related violations: <none>

TIMING-17#35 Warning
Non-clocked sequential cell  
The clock pin si5324_cfg/counter_reg[30]/C is not reached by a timing clock
Related violations: <none>

TIMING-17#36 Warning
Non-clocked sequential cell  
The clock pin si5324_cfg/counter_reg[31]/C is not reached by a timing clock
Related violations: <none>

TIMING-17#37 Warning
Non-clocked sequential cell  
The clock pin si5324_cfg/counter_reg[3]/C is not reached by a timing clock
Related violations: <none>

TIMING-17#38 Warning
Non-clocked sequential cell  
The clock pin si5324_cfg/counter_reg[4]/C is not reached by a timing clock
Related violations: <none>

TIMING-17#39 Warning
Non-clocked sequential cell  
The clock pin si5324_cfg/counter_reg[5]/C is not reached by a timing clock
Related violations: <none>

TIMING-17#40 Warning
Non-clocked sequential cell  
The clock pin si5324_cfg/counter_reg[6]/C is not reached by a timing clock
Related violations: <none>

TIMING-17#41 Warning
Non-clocked sequential cell  
The clock pin si5324_cfg/counter_reg[7]/C is not reached by a timing clock
Related violations: <none>

TIMING-17#42 Warning
Non-clocked sequential cell  
The clock pin si5324_cfg/counter_reg[8]/C is not reached by a timing clock
Related violations: <none>

TIMING-17#43 Warning
Non-clocked sequential cell  
The clock pin si5324_cfg/counter_reg[9]/C is not reached by a timing clock
Related violations: <none>

TIMING-17#44 Warning
Non-clocked sequential cell  
The clock pin si5324_cfg/i2c_controller/FSM_onehot_state_reg[0]/C is not reached by a timing clock
Related violations: <none>

TIMING-17#45 Warning
Non-clocked sequential cell  
The clock pin si5324_cfg/i2c_controller/FSM_onehot_state_reg[1]/C is not reached by a timing clock
Related violations: <none>

TIMING-17#46 Warning
Non-clocked sequential cell  
The clock pin si5324_cfg/i2c_controller/FSM_onehot_state_reg[2]/C is not reached by a timing clock
Related violations: <none>

TIMING-17#47 Warning
Non-clocked sequential cell  
The clock pin si5324_cfg/i2c_controller/FSM_onehot_state_reg[3]/C is not reached by a timing clock
Related violations: <none>

TIMING-17#48 Warning
Non-clocked sequential cell  
The clock pin si5324_cfg/i2c_controller/FSM_onehot_state_reg[4]/C is not reached by a timing clock
Related violations: <none>

TIMING-17#49 Warning
Non-clocked sequential cell  
The clock pin si5324_cfg/i2c_controller/FSM_onehot_state_reg[5]/C is not reached by a timing clock
Related violations: <none>

TIMING-17#50 Warning
Non-clocked sequential cell  
The clock pin si5324_cfg/i2c_controller/FSM_onehot_state_reg[6]/C is not reached by a timing clock
Related violations: <none>

TIMING-17#51 Warning
Non-clocked sequential cell  
The clock pin si5324_cfg/i2c_controller/FSM_onehot_state_reg[7]/C is not reached by a timing clock
Related violations: <none>

TIMING-17#52 Warning
Non-clocked sequential cell  
The clock pin si5324_cfg/i2c_controller/FSM_onehot_state_reg[8]/C is not reached by a timing clock
Related violations: <none>

TIMING-17#53 Warning
Non-clocked sequential cell  
The clock pin si5324_cfg/i2c_controller/addr_rw_reg[0]/C is not reached by a timing clock
Related violations: <none>

TIMING-17#54 Warning
Non-clocked sequential cell  
The clock pin si5324_cfg/i2c_controller/addr_rw_reg[4]/C is not reached by a timing clock
Related violations: <none>

TIMING-17#55 Warning
Non-clocked sequential cell  
The clock pin si5324_cfg/i2c_controller/addr_rw_reg[6]/C is not reached by a timing clock
Related violations: <none>

TIMING-17#56 Warning
Non-clocked sequential cell  
The clock pin si5324_cfg/i2c_controller/addr_rw_reg[7]/C is not reached by a timing clock
Related violations: <none>

TIMING-17#57 Warning
Non-clocked sequential cell  
The clock pin si5324_cfg/i2c_controller/bit_cnt_reg[0]/C is not reached by a timing clock
Related violations: <none>

TIMING-17#58 Warning
Non-clocked sequential cell  
The clock pin si5324_cfg/i2c_controller/bit_cnt_reg[1]/C is not reached by a timing clock
Related violations: <none>

TIMING-17#59 Warning
Non-clocked sequential cell  
The clock pin si5324_cfg/i2c_controller/bit_cnt_reg[2]/C is not reached by a timing clock
Related violations: <none>

TIMING-17#60 Warning
Non-clocked sequential cell  
The clock pin si5324_cfg/i2c_controller/busy_reg/C is not reached by a timing clock
Related violations: <none>

TIMING-17#61 Warning
Non-clocked sequential cell  
The clock pin si5324_cfg/i2c_controller/count_reg[0]/C is not reached by a timing clock
Related violations: <none>

TIMING-17#62 Warning
Non-clocked sequential cell  
The clock pin si5324_cfg/i2c_controller/count_reg[1]/C is not reached by a timing clock
Related violations: <none>

TIMING-17#63 Warning
Non-clocked sequential cell  
The clock pin si5324_cfg/i2c_controller/count_reg[2]/C is not reached by a timing clock
Related violations: <none>

TIMING-17#64 Warning
Non-clocked sequential cell  
The clock pin si5324_cfg/i2c_controller/count_reg[3]/C is not reached by a timing clock
Related violations: <none>

TIMING-17#65 Warning
Non-clocked sequential cell  
The clock pin si5324_cfg/i2c_controller/count_reg[4]/C is not reached by a timing clock
Related violations: <none>

TIMING-17#66 Warning
Non-clocked sequential cell  
The clock pin si5324_cfg/i2c_controller/count_reg[5]/C is not reached by a timing clock
Related violations: <none>

TIMING-17#67 Warning
Non-clocked sequential cell  
The clock pin si5324_cfg/i2c_controller/count_reg[6]/C is not reached by a timing clock
Related violations: <none>

TIMING-17#68 Warning
Non-clocked sequential cell  
The clock pin si5324_cfg/i2c_controller/count_reg[7]/C is not reached by a timing clock
Related violations: <none>

TIMING-17#69 Warning
Non-clocked sequential cell  
The clock pin si5324_cfg/i2c_controller/count_reg[8]/C is not reached by a timing clock
Related violations: <none>

TIMING-17#70 Warning
Non-clocked sequential cell  
The clock pin si5324_cfg/i2c_controller/data_clk_reg/C is not reached by a timing clock
Related violations: <none>

TIMING-17#71 Warning
Non-clocked sequential cell  
The clock pin si5324_cfg/i2c_controller/data_rd_reg[0]/C is not reached by a timing clock
Related violations: <none>

TIMING-17#72 Warning
Non-clocked sequential cell  
The clock pin si5324_cfg/i2c_controller/data_rx_reg[0]/C is not reached by a timing clock
Related violations: <none>

TIMING-17#73 Warning
Non-clocked sequential cell  
The clock pin si5324_cfg/i2c_controller/data_tx_reg[0]/C is not reached by a timing clock
Related violations: <none>

TIMING-17#74 Warning
Non-clocked sequential cell  
The clock pin si5324_cfg/i2c_controller/data_tx_reg[1]/C is not reached by a timing clock
Related violations: <none>

TIMING-17#75 Warning
Non-clocked sequential cell  
The clock pin si5324_cfg/i2c_controller/data_tx_reg[2]/C is not reached by a timing clock
Related violations: <none>

TIMING-17#76 Warning
Non-clocked sequential cell  
The clock pin si5324_cfg/i2c_controller/data_tx_reg[3]/C is not reached by a timing clock
Related violations: <none>

TIMING-17#77 Warning
Non-clocked sequential cell  
The clock pin si5324_cfg/i2c_controller/data_tx_reg[4]/C is not reached by a timing clock
Related violations: <none>

TIMING-17#78 Warning
Non-clocked sequential cell  
The clock pin si5324_cfg/i2c_controller/data_tx_reg[5]/C is not reached by a timing clock
Related violations: <none>

TIMING-17#79 Warning
Non-clocked sequential cell  
The clock pin si5324_cfg/i2c_controller/data_tx_reg[6]/C is not reached by a timing clock
Related violations: <none>

TIMING-17#80 Warning
Non-clocked sequential cell  
The clock pin si5324_cfg/i2c_controller/data_tx_reg[7]/C is not reached by a timing clock
Related violations: <none>

TIMING-17#81 Warning
Non-clocked sequential cell  
The clock pin si5324_cfg/i2c_controller/scl_clk_reg/C is not reached by a timing clock
Related violations: <none>

TIMING-17#82 Warning
Non-clocked sequential cell  
The clock pin si5324_cfg/i2c_controller/scl_ena_reg/C is not reached by a timing clock
Related violations: <none>

TIMING-17#83 Warning
Non-clocked sequential cell  
The clock pin si5324_cfg/i2c_controller/sda_int_reg/C is not reached by a timing clock
Related violations: <none>

TIMING-17#84 Warning
Non-clocked sequential cell  
The clock pin si5324_cfg/i2c_controller/stretch_reg/C is not reached by a timing clock
Related violations: <none>

TIMING-17#85 Warning
Non-clocked sequential cell  
The clock pin si5324_cfg/i2c_data_in_mux_reg/C is not reached by a timing clock
Related violations: <none>

TIMING-17#86 Warning
Non-clocked sequential cell  
The clock pin si5324_cfg/i2c_en_reg/C is not reached by a timing clock
Related violations: <none>

TIMING-17#87 Warning
Non-clocked sequential cell  
The clock pin si5324_cfg/i2c_rw_reg/C is not reached by a timing clock
Related violations: <none>

TIMING-17#88 Warning
Non-clocked sequential cell  
The clock pin si5324_cfg/ram_addr_clr_reg/C is not reached by a timing clock
Related violations: <none>

TIMING-17#89 Warning
Non-clocked sequential cell  
The clock pin si5324_cfg/ram_addr_inc_reg/C is not reached by a timing clock
Related violations: <none>

TIMING-17#90 Warning
Non-clocked sequential cell  
The clock pin si5324_cfg/ram_addr_reg[0]/C is not reached by a timing clock
Related violations: <none>

TIMING-17#91 Warning
Non-clocked sequential cell  
The clock pin si5324_cfg/ram_addr_reg[1]/C is not reached by a timing clock
Related violations: <none>

TIMING-17#92 Warning
Non-clocked sequential cell  
The clock pin si5324_cfg/ram_addr_reg[2]/C is not reached by a timing clock
Related violations: <none>

TIMING-17#93 Warning
Non-clocked sequential cell  
The clock pin si5324_cfg/ram_addr_reg[3]/C is not reached by a timing clock
Related violations: <none>

TIMING-17#94 Warning
Non-clocked sequential cell  
The clock pin si5324_cfg/ram_addr_reg[4]/C is not reached by a timing clock
Related violations: <none>

TIMING-17#95 Warning
Non-clocked sequential cell  
The clock pin si5324_cfg/ram_addr_reg[5]/C is not reached by a timing clock
Related violations: <none>

TIMING-17#96 Warning
Non-clocked sequential cell  
The clock pin si5324_cfg/ram_addr_reg[6]/C is not reached by a timing clock
Related violations: <none>

TIMING-17#97 Warning
Non-clocked sequential cell  
The clock pin si5324_cfg/ram_addr_reg[7]/C is not reached by a timing clock
Related violations: <none>

TIMING-17#98 Warning
Non-clocked sequential cell  
The clock pin si5324_cfg/si5324_regs/U0/inst_blk_mem_gen/gnbram.gnativebmg.native_blk_mem_gen/valid.cstr/ramloop[0].ram.r/prim_init.ram/DEVICE_7SERIES.NO_BMM_INFO.SP.WIDE_PRIM18.ram/CLKARDCLK is not reached by a timing clock
Related violations: <none>

TIMING-17#99 Warning
Non-clocked sequential cell  
The clock pin si5324_cfg/si5324_regs/U0/inst_blk_mem_gen/gnbram.gnativebmg.native_blk_mem_gen/valid.cstr/ramloop[0].ram.r/prim_init.ram/DEVICE_7SERIES.NO_BMM_INFO.SP.WIDE_PRIM18.ram/CLKBWRCLK is not reached by a timing clock
Related violations: <none>

TIMING-17#100 Warning
Non-clocked sequential cell  
The clock pin si5324_cfg/si5324_regs/U0/inst_blk_mem_gen/gnbram.gnativebmg.native_blk_mem_gen/valid.cstr/ramloop[0].ram.r/prim_init.ram/si5324_cfg/si5324_regs/U0/inst_blk_mem_gen/gnbram.gnativebmg.native_blk_mem_gen/valid.cstr/ramloop[0].ram.r/prim_init.ram/DEVICE_7SERIES.NO_BMM_INFO.SP.WIDE_PRIM18.ram_cooolgate_en_gate_1_cooolDelFlop/C is not reached by a timing clock
Related violations: <none>

TIMING-17#101 Warning
Non-clocked sequential cell  
The clock pin si5324_cfg/si5324_regs/U0/inst_blk_mem_gen/gnbram.gnativebmg.native_blk_mem_gen/valid.cstr/ramloop[0].ram.r/prim_init.ram/si5324_cfg/si5324_regs/U0/inst_blk_mem_gen/gnbram.gnativebmg.native_blk_mem_gen/valid.cstr/ramloop[0].ram.r/prim_init.ram/DEVICE_7SERIES.NO_BMM_INFO.SP.WIDE_PRIM18.ram_cooolgate_en_gate_2_cooolDelFlop/C is not reached by a timing clock
Related violations: <none>

TIMING-17#102 Warning
Non-clocked sequential cell  
The clock pin si5324_cfg/state_reg[0]/C is not reached by a timing clock
Related violations: <none>

TIMING-17#103 Warning
Non-clocked sequential cell  
The clock pin si5324_cfg/state_reg[1]/C is not reached by a timing clock
Related violations: <none>

TIMING-17#104 Warning
Non-clocked sequential cell  
The clock pin si5324_cfg/state_reg[2]/C is not reached by a timing clock
Related violations: <none>

TIMING-17#105 Warning
Non-clocked sequential cell  
The clock pin si5324_cfg/state_reg[3]/C is not reached by a timing clock
Related violations: <none>

TIMING-18#1 Warning
Missing input or output delay  
An input delay is missing on spi_cs0 relative to clock(s) spi_sck
Related violations: <none>

TIMING-18#2 Warning
Missing input or output delay  
An input delay is missing on spi_mosi relative to clock(s) spi_sck
Related violations: <none>

TIMING-18#3 Warning
Missing input or output delay  
An output delay is missing on spi_miso relative to clock(s) spi_sck
Related violations: <none>

TIMING-25#1 Warning
Invalid clock waveform on gigabit transceiver (GT)  
The waveform of the user clock GTX/inst/gtwizard_0_init_i/gtwizard_0_i/gt0_gtwizard_0_i/gtxe2_i/TXOUTCLK defined on the transceiver output pin GTX/inst/gtwizard_0_init_i/gtwizard_0_i/gt0_gtwizard_0_i/gtxe2_i/TXOUTCLK or on the net connected to that pin is not consistent with the transceiver settings. The auto-derived clock period is UNDEFINED and the user-defined clock period is 6.250. The expected clock waveform is computed based on the GT settings and the incoming clock to the transceiver. It is recommended to check that there are no missing clocks to the GT and that all the transceiver settings are correct
Related violations: <none>

XDCB-5#1 Warning
Runtime inefficient way to find pin objects  
The option 'objects : [get_pins -hier -filter name=~*gt0_gtwizard_0_i*gtxe2_i*RXOUTCLKFABRIC]' of constraint 'create_clock' uses inefficient query to find pin objects (see constraint position '3' in the Timing Constraint window in Vivado IDE). To reduce runtime, it is recommended to get the pins through the cell objects. Please refer to Using Constraints Guide (Constraints Efficiency). An example of optimal query is: get_pins -filter {REF_PIN_NAME=~yy*} -of_objects [get_cells -hierarchical xx*].
Current XDC: /home/rsaradhy/Work/Output/Firmware/Base_Project/FPGA_Write/Second Block/Second Block.srcs/sources_1/ip/gtwizard_0/gtwizard_0.xdc (Line: 75)
Related violations: <none>

XDCB-5#2 Warning
Runtime inefficient way to find pin objects  
The option 'objects : [get_pins -hier -filter name=~*gt0_gtwizard_0_i*gtxe2_i*TXOUTCLKFABRIC]' of constraint 'create_clock' uses inefficient query to find pin objects (see constraint position '2' in the Timing Constraint window in Vivado IDE). To reduce runtime, it is recommended to get the pins through the cell objects. Please refer to Using Constraints Guide (Constraints Efficiency). An example of optimal query is: get_pins -filter {REF_PIN_NAME=~yy*} -of_objects [get_cells -hierarchical xx*].
Current XDC: /home/rsaradhy/Work/Output/Firmware/Base_Project/FPGA_Write/Second Block/Second Block.srcs/sources_1/ip/gtwizard_0/gtwizard_0.xdc (Line: 74)
Related violations: <none>

XDCB-5#3 Warning
Runtime inefficient way to find pin objects  
The option 'objects : [get_pins -hier -filter name=~*gt0_gtwizard_0_i*gtxe2_i*TXOUTCLK]' of constraint 'create_clock' uses inefficient query to find pin objects (see constraint position '1' in the Timing Constraint window in Vivado IDE). To reduce runtime, it is recommended to get the pins through the cell objects. Please refer to Using Constraints Guide (Constraints Efficiency). An example of optimal query is: get_pins -filter {REF_PIN_NAME=~yy*} -of_objects [get_cells -hierarchical xx*].
Current XDC: /home/rsaradhy/Work/Output/Firmware/Base_Project/FPGA_Write/Second Block/Second Block.srcs/sources_1/ip/gtwizard_0/gtwizard_0.xdc (Line: 73)
Related violations: <none>

XDCB-5#4 Warning
Runtime inefficient way to find pin objects  
The option 'objects : [get_pins -hier -filter name=~*gt1_gtwizard_0_i*gtxe2_i*RXOUTCLKFABRIC]' of constraint 'create_clock' uses inefficient query to find pin objects (see constraint position '6' in the Timing Constraint window in Vivado IDE). To reduce runtime, it is recommended to get the pins through the cell objects. Please refer to Using Constraints Guide (Constraints Efficiency). An example of optimal query is: get_pins -filter {REF_PIN_NAME=~yy*} -of_objects [get_cells -hierarchical xx*].
Current XDC: /home/rsaradhy/Work/Output/Firmware/Base_Project/FPGA_Write/Second Block/Second Block.srcs/sources_1/ip/gtwizard_0/gtwizard_0.xdc (Line: 83)
Related violations: <none>

XDCB-5#5 Warning
Runtime inefficient way to find pin objects  
The option 'objects : [get_pins -hier -filter name=~*gt1_gtwizard_0_i*gtxe2_i*TXOUTCLKFABRIC]' of constraint 'create_clock' uses inefficient query to find pin objects (see constraint position '5' in the Timing Constraint window in Vivado IDE). To reduce runtime, it is recommended to get the pins through the cell objects. Please refer to Using Constraints Guide (Constraints Efficiency). An example of optimal query is: get_pins -filter {REF_PIN_NAME=~yy*} -of_objects [get_cells -hierarchical xx*].
Current XDC: /home/rsaradhy/Work/Output/Firmware/Base_Project/FPGA_Write/Second Block/Second Block.srcs/sources_1/ip/gtwizard_0/gtwizard_0.xdc (Line: 82)
Related violations: <none>

XDCB-5#6 Warning
Runtime inefficient way to find pin objects  
The option 'objects : [get_pins -hier -filter name=~*gt1_gtwizard_0_i*gtxe2_i*TXOUTCLK]' of constraint 'create_clock' uses inefficient query to find pin objects (see constraint position '4' in the Timing Constraint window in Vivado IDE). To reduce runtime, it is recommended to get the pins through the cell objects. Please refer to Using Constraints Guide (Constraints Efficiency). An example of optimal query is: get_pins -filter {REF_PIN_NAME=~yy*} -of_objects [get_cells -hierarchical xx*].
Current XDC: /home/rsaradhy/Work/Output/Firmware/Base_Project/FPGA_Write/Second Block/Second Block.srcs/sources_1/ip/gtwizard_0/gtwizard_0.xdc (Line: 81)
Related violations: <none>


